Flask==0.10.1
Flask-Bootstrap==3.0.3.1
Flask-HTTPAuth==2.7.0
Flask-Login==0.3.1
Flask-Mail==0.9.0
Flask-Migrate==1.1.0
Flask-Moment==0.2.1
Flask-PageDown==0.1.4
Flask-SQLAlchemy==1.0
Flask-Script==0.6.6
Flask-WTF==0.9.4
Jinja2==2.7.1
Mako==0.9.1
Markdown==2.3.1
MarkupSafe==0.18
SQLAlchemy==0.9.9
WTForms==1.0.5
Werkzeug==0.10.4
alembic==0.6.5
bleach==1.4.0
blinker==1.3
html5lib==1.0b3
itsdangerous==0.23
six==1.4.1
